module gitlab.com/evolves-fr/go-remote-import

go 1.20

require (
	github.com/AlecAivazis/survey/v2 v2.3.6
	github.com/go-playground/validator/v10 v10.14.0
	github.com/go-sql-driver/mysql v1.7.1
	github.com/golang-jwt/jwt v3.2.2+incompatible
	github.com/labstack/echo/v4 v4.10.2
	github.com/sirupsen/logrus v1.9.2
	github.com/urfave/cli/v2 v2.25.5
	gitlab.com/evolves-fr/gommon v0.44.1
	golang.org/x/crypto v0.9.0
	gorm.io/driver/mysql v1.5.1
	gorm.io/driver/postgres v1.5.2
	gorm.io/gorm v1.25.1
)

require (
	github.com/Masterminds/semver v1.5.0 // indirect
	github.com/cpuguy83/go-md2man/v2 v2.0.2 // indirect
	github.com/gabriel-vasile/mimetype v1.4.2 // indirect
	github.com/go-playground/locales v0.14.1 // indirect
	github.com/go-playground/universal-translator v0.18.1 // indirect
	github.com/jackc/pgpassfile v1.0.0 // indirect
	github.com/jackc/pgservicefile v0.0.0-20221227161230-091c0ba34f0a // indirect
	github.com/jackc/pgx/v5 v5.3.1 // indirect
	github.com/jinzhu/inflection v1.0.0 // indirect
	github.com/jinzhu/now v1.1.5 // indirect
	github.com/kballard/go-shellquote v0.0.0-20180428030007-95032a82bc51 // indirect
	github.com/kr/text v0.2.0 // indirect
	github.com/labstack/gommon v0.4.0 // indirect
	github.com/leodido/go-urn v1.2.4 // indirect
	github.com/mattn/go-colorable v0.1.13 // indirect
	github.com/mattn/go-isatty v0.0.19 // indirect
	github.com/mgutz/ansi v0.0.0-20200706080929-d51e80ef957d // indirect
	github.com/rogpeppe/go-internal v1.10.0 // indirect
	github.com/russross/blackfriday/v2 v2.1.0 // indirect
	github.com/valyala/bytebufferpool v1.0.0 // indirect
	github.com/valyala/fasttemplate v1.2.2 // indirect
	github.com/xrash/smetrics v0.0.0-20201216005158-039620a65673 // indirect
	golang.org/x/net v0.10.0 // indirect
	golang.org/x/sys v0.8.0 // indirect
	golang.org/x/term v0.8.0 // indirect
	golang.org/x/text v0.9.0 // indirect
	golang.org/x/time v0.3.0 // indirect
	gopkg.in/yaml.v3 v3.0.1 // indirect
)
